{
  "project_info": {
    "project_number": "404680785232",
    "project_id": "elearning-711fc",
    "storage_bucket": "elearning-711fc.appspot.com"
  },
  "client": [
    {
      "client_info": {
        "mobilesdk_app_id": "1:404680785232:android:e146e926933deccd748055",
        "android_client_info": {
          "package_name": "com.tructuanguy.elearning"
        }
      },
      "oauth_client": [],
      "api_key": [
        {
          "current_key": "AIzaSyA3qruaQJwnBebDLvgcJiUrcwEFBdnLDS8"
        }
      ],
      "services": {
        "appinvite_service": {
          "other_platform_oauth_client": []
        }
      }
    }
  ],
  "configuration_version": "1"
}